US and Italy: analysis and figures for paper
…
##     model_today <- extract_model(model_pp, filt_cases = filt_cases)
##     incr_list <- as.list(incr)
##     names(incr_list) <- unique(model_pp$term)
##     or_glm(data = model_today$model$data, model = model_today$model, 
##         incr = incr_list) %>% filter(predictor == unique(model_pp$term)) %>% 
##         mutate(filt_cases = !!filt_cases)
## }
## 
## [[1]]$visible
## [1] FALSE
## 
## 
## [[2]]
## [[2]]$value
## # A tibble: 3,244 x 339
##    date       county state  fips cases deaths   cmr total_households
##    <date>     <chr>  <chr> <dbl> <dbl>  <dbl> <dbl>            <dbl>
##  1 2020-06-11 Autau Alab  1001   312      6 1.92             21115
##  2 2020-06-11 Baldw Alab  1003   343      9 2.62             78622
##  3 2020-06-11 Barbo Alab  1005   214      1 0.467             9186
##  4 2020-06-11 Bibb   Alab  1007    93      1 1.08              6840
##  5 2020-06-11 Blount Alab  1009    87      1 1.15             20600
##  6 2020-06-11 Bullo Alab  1011   253      8 3.16              3609
##  7 2020-06-11 Butler Alab  1013   484     25 5.17              6708
##  8 2020-06-11 Calho Alab  1015   184      3 1.63             45033
##  9 2020-06-11 Chamb Alab  1017   417     26 6.24             13516
## 10 2020-06-11 Chero Alab  1019    42      4 9.52             10606
## #  with 3,234 more rows, and 331 more variables: perc_families <dbl>,
## #   perc_familes_18childreen <dbl>, perc_married_couples <dbl>,
## #   perc_married_couples_u18ychildreen <dbl>, perc_families_only_male <dbl>,
## #   perc_families_only_male__18ychildreen <dbl>,
## #   perc_families_only_female <dbl>,
## #   perc_families_only_female__18ychildreen <dbl>, perc_non_families <dbl>,
## #   perc_non_families_alone <dbl>, perc_non_families_alone65y <dbl>,
## #   perc_non_families_u18y <dbl>, perc_non_families_65y <dbl>,
## #   total_relationship_in_households <dbl>,
…
